--
-- PostgreSQL database cluster dump
--

SET default_transaction_read_only = off;

SET client_encoding = 'UTF8';
SET standard_conforming_strings = on;

--
-- Drop databases (except postgres and template1)
--

DROP DATABASE library;
DROP DATABASE test;




--
-- Drop roles
--

DROP ROLE library_admin;
DROP ROLE operator_1;
DROP ROLE operators;
DROP ROLE postgres;
DROP ROLE priv_1;
DROP ROLE priv_users;
DROP ROLE unpriv_1;
DROP ROLE unpriv_users;
DROP ROLE user1;
DROP ROLE user2;


--
-- Roles
--

CREATE ROLE library_admin;
ALTER ROLE library_admin WITH NOSUPERUSER INHERIT NOCREATEROLE NOCREATEDB LOGIN NOREPLICATION NOBYPASSRLS PASSWORD 'SCRAM-SHA-256$4096:egmI8jGtTY+tR2dcUc4JVg==$geiHsIjQfsZiNoPNMAroGwiulLySg2bMfUEYnBXSM2U=:Qs4KaHFzWDjxpRQI8g1GXDCK1XbZs3YQJQcg6jJ33sU=';
CREATE ROLE operator_1;
ALTER ROLE operator_1 WITH NOSUPERUSER INHERIT NOCREATEROLE NOCREATEDB LOGIN NOREPLICATION NOBYPASSRLS PASSWORD 'SCRAM-SHA-256$4096:QDbntOwFdAjDazt4sP+ZaQ==$IpfAq7hEDVt2aj5S+kYXlwmUOgMRxhoR7ZTxlRFzsDw=:daNWzxhRwobFrKD6MAw9WIBdyQhLA7pVreeI4pXFmD8=';
CREATE ROLE operators;
ALTER ROLE operators WITH NOSUPERUSER INHERIT NOCREATEROLE NOCREATEDB NOLOGIN NOREPLICATION NOBYPASSRLS;
CREATE ROLE postgres;
ALTER ROLE postgres WITH SUPERUSER INHERIT CREATEROLE CREATEDB LOGIN REPLICATION BYPASSRLS PASSWORD 'SCRAM-SHA-256$4096:ayvFBKGtMLoWtL3zHVv6Tw==$PS2o1RBpGGu12JK2p3yAdmQWWDvo6K2vHmQgeBmzXyU=:IvWG7ZGe5oADbZ4IsVf+FXbmA8RE8NM8wr5f8H0nMMg=';
CREATE ROLE priv_1;
ALTER ROLE priv_1 WITH NOSUPERUSER INHERIT NOCREATEROLE NOCREATEDB LOGIN NOREPLICATION NOBYPASSRLS PASSWORD 'SCRAM-SHA-256$4096:eCIKSQet2ro6zDxsTLgB0Q==$QGctyHvVfS/Rqdy0TBEqDZdLVWRGGowKiSkQNqxI29g=:2zJKh98WZlR8/QFZZyHCi2qqdpkp3AlAJiwcqIoZMRw=';
CREATE ROLE priv_users;
ALTER ROLE priv_users WITH NOSUPERUSER INHERIT NOCREATEROLE NOCREATEDB NOLOGIN NOREPLICATION NOBYPASSRLS;
CREATE ROLE unpriv_1;
ALTER ROLE unpriv_1 WITH NOSUPERUSER INHERIT NOCREATEROLE NOCREATEDB LOGIN NOREPLICATION NOBYPASSRLS PASSWORD 'SCRAM-SHA-256$4096:Bz7vyU9H/KZGC6b2vt0/Yw==$kaH9oDzEM7y/+JP1pnMDmqh2l66NjJax6jQ8dAyfJpI=:bdeJGBDHm0tQfDjBNEZXbMheIi1frf5krPO7/KR1Pxs=';
CREATE ROLE unpriv_users;
ALTER ROLE unpriv_users WITH NOSUPERUSER INHERIT NOCREATEROLE NOCREATEDB NOLOGIN NOREPLICATION NOBYPASSRLS;
CREATE ROLE user1;
ALTER ROLE user1 WITH NOSUPERUSER INHERIT NOCREATEROLE NOCREATEDB LOGIN NOREPLICATION NOBYPASSRLS PASSWORD 'SCRAM-SHA-256$4096:AAkBFqgYS6/0K8/zqBikTw==$IN0FOg5Wdi2yneGk4HgDejt/6IaqFL+cKGqs2CUlZjE=:0wTd3OfqIJ+ga/L/KAwC++mnghxD7bz7KZzjnQNkc58=';
CREATE ROLE user2;
ALTER ROLE user2 WITH NOSUPERUSER INHERIT NOCREATEROLE NOCREATEDB LOGIN NOREPLICATION NOBYPASSRLS PASSWORD 'SCRAM-SHA-256$4096:j18X5wC5q7vo5xDVfS6aIA==$3IttYBOTF7Vh/oEnfUZvgZQxJH/cCLTWV2U1cs9wP6U=:dOtLrdaqr7neafkFiktciMlSZHZXb99w+5cus9tRyMs=';


--
-- Role memberships
--

GRANT operators TO operator_1 GRANTED BY postgres;
GRANT priv_users TO priv_1 GRANTED BY postgres;
GRANT unpriv_users TO unpriv_1 GRANTED BY postgres;




--
-- Databases
--

--
-- Database "template1" dump
--

--
-- PostgreSQL database dump
--

-- Dumped from database version 13.4
-- Dumped by pg_dump version 13.4

SET statement_timeout = 0;
SET lock_timeout = 0;
SET idle_in_transaction_session_timeout = 0;
SET client_encoding = 'UTF8';
SET standard_conforming_strings = on;
SELECT pg_catalog.set_config('search_path', '', false);
SET check_function_bodies = false;
SET xmloption = content;
SET client_min_messages = warning;
SET row_security = off;

UPDATE pg_catalog.pg_database SET datistemplate = false WHERE datname = 'template1';
DROP DATABASE template1;
--
-- Name: template1; Type: DATABASE; Schema: -; Owner: postgres
--

CREATE DATABASE template1 WITH TEMPLATE = template0 ENCODING = 'UTF8' LOCALE = 'Russian_Russia.1251';


ALTER DATABASE template1 OWNER TO postgres;

\connect template1

SET statement_timeout = 0;
SET lock_timeout = 0;
SET idle_in_transaction_session_timeout = 0;
SET client_encoding = 'UTF8';
SET standard_conforming_strings = on;
SELECT pg_catalog.set_config('search_path', '', false);
SET check_function_bodies = false;
SET xmloption = content;
SET client_min_messages = warning;
SET row_security = off;

--
-- Name: DATABASE template1; Type: COMMENT; Schema: -; Owner: postgres
--

COMMENT ON DATABASE template1 IS 'default template for new databases';


--
-- Name: template1; Type: DATABASE PROPERTIES; Schema: -; Owner: postgres
--

ALTER DATABASE template1 IS_TEMPLATE = true;


\connect template1

SET statement_timeout = 0;
SET lock_timeout = 0;
SET idle_in_transaction_session_timeout = 0;
SET client_encoding = 'UTF8';
SET standard_conforming_strings = on;
SELECT pg_catalog.set_config('search_path', '', false);
SET check_function_bodies = false;
SET xmloption = content;
SET client_min_messages = warning;
SET row_security = off;

--
-- Name: DATABASE template1; Type: ACL; Schema: -; Owner: postgres
--

REVOKE CONNECT,TEMPORARY ON DATABASE template1 FROM PUBLIC;
GRANT CONNECT ON DATABASE template1 TO PUBLIC;


--
-- PostgreSQL database dump complete
--

--
-- Database "library" dump
--

--
-- PostgreSQL database dump
--

-- Dumped from database version 13.4
-- Dumped by pg_dump version 13.4

SET statement_timeout = 0;
SET lock_timeout = 0;
SET idle_in_transaction_session_timeout = 0;
SET client_encoding = 'UTF8';
SET standard_conforming_strings = on;
SELECT pg_catalog.set_config('search_path', '', false);
SET check_function_bodies = false;
SET xmloption = content;
SET client_min_messages = warning;
SET row_security = off;

--
-- Name: library; Type: DATABASE; Schema: -; Owner: postgres
--

CREATE DATABASE library WITH TEMPLATE = template0 ENCODING = 'UTF8' LOCALE = 'Russian_Russia.1251';


ALTER DATABASE library OWNER TO postgres;

\connect library

SET statement_timeout = 0;
SET lock_timeout = 0;
SET idle_in_transaction_session_timeout = 0;
SET client_encoding = 'UTF8';
SET standard_conforming_strings = on;
SELECT pg_catalog.set_config('search_path', '', false);
SET check_function_bodies = false;
SET xmloption = content;
SET client_min_messages = warning;
SET row_security = off;

--
-- Name: get_role(character varying); Type: FUNCTION; Schema: public; Owner: postgres
--

CREATE FUNCTION public.get_role(user_name character varying) RETURNS SETOF name
    LANGUAGE plpgsql
    AS $$ 
BEGIN
RETURN QUERY
SELECT groname FROM pg_group WHERE (SELECT usesysid FROM pg_user WHERE usename = user_name) = ANY (grolist);
END; 
$$;


ALTER FUNCTION public.get_role(user_name character varying) OWNER TO postgres;

SET default_tablespace = '';

SET default_table_access_method = heap;

--
-- Name: abonents; Type: TABLE; Schema: public; Owner: postgres
--

CREATE TABLE public.abonents (
    bilet_number integer NOT NULL,
    user_login character varying(50) NOT NULL,
    last_name character varying(20) NOT NULL,
    address character varying(50) NOT NULL,
    phone character varying(15) NOT NULL
);


ALTER TABLE public.abonents OWNER TO postgres;

--
-- Name: abonents_bilet_number_seq; Type: SEQUENCE; Schema: public; Owner: postgres
--

ALTER TABLE public.abonents ALTER COLUMN bilet_number ADD GENERATED ALWAYS AS IDENTITY (
    SEQUENCE NAME public.abonents_bilet_number_seq
    START WITH 1
    INCREMENT BY 1
    NO MINVALUE
    NO MAXVALUE
    CACHE 1
);


--
-- Name: all_abonents; Type: VIEW; Schema: public; Owner: postgres
--

CREATE VIEW public.all_abonents AS
 SELECT abonents.bilet_number,
    abonents.user_login,
    abonents.last_name,
    abonents.address,
    abonents.phone
   FROM public.abonents;


ALTER TABLE public.all_abonents OWNER TO postgres;

--
-- Name: books; Type: TABLE; Schema: public; Owner: postgres
--

CREATE TABLE public.books (
    code integer NOT NULL,
    author character varying(50) NOT NULL,
    title character varying(50) NOT NULL,
    count_book integer NOT NULL,
    CONSTRAINT books_count_book_check CHECK ((count_book >= 0))
);


ALTER TABLE public.books OWNER TO postgres;

--
-- Name: all_books; Type: VIEW; Schema: public; Owner: postgres
--

CREATE VIEW public.all_books AS
 SELECT books.code,
    books.author,
    books.title,
    books.count_book
   FROM public.books;


ALTER TABLE public.all_books OWNER TO postgres;

--
-- Name: lend; Type: TABLE; Schema: public; Owner: postgres
--

CREATE TABLE public.lend (
    id_lend integer NOT NULL,
    bilet_number integer NOT NULL,
    book_code integer NOT NULL,
    date_lend date NOT NULL,
    date_return date NOT NULL,
    penny integer NOT NULL,
    CONSTRAINT lend_penny_check CHECK ((penny >= 0))
);


ALTER TABLE public.lend OWNER TO postgres;

--
-- Name: all_lends; Type: VIEW; Schema: public; Owner: postgres
--

CREATE VIEW public.all_lends AS
 SELECT abonents.bilet_number,
    abonents.last_name,
    books.code,
    books.title,
    lend.date_lend,
    lend.date_return,
    lend.penny
   FROM ((public.abonents
     JOIN public.lend ON ((abonents.bilet_number = lend.bilet_number)))
     JOIN public.books ON ((lend.book_code = books.code)));


ALTER TABLE public.all_lends OWNER TO postgres;

--
-- Name: tables_lvl; Type: TABLE; Schema: public; Owner: postgres
--

CREATE TABLE public.tables_lvl (
    t_name character varying(50) NOT NULL,
    lvl integer NOT NULL,
    CONSTRAINT tables_lvl_lvl_check CHECK ((lvl >= 0))
);


ALTER TABLE public.tables_lvl OWNER TO postgres;

--
-- Name: all_tables_lvl; Type: VIEW; Schema: public; Owner: postgres
--

CREATE VIEW public.all_tables_lvl AS
 SELECT tables_lvl.t_name,
    tables_lvl.lvl
   FROM public.tables_lvl;


ALTER TABLE public.all_tables_lvl OWNER TO postgres;

--
-- Name: users; Type: TABLE; Schema: public; Owner: postgres
--

CREATE TABLE public.users (
    user_login character varying(50) NOT NULL,
    min_lvl integer NOT NULL,
    max_lvl integer NOT NULL,
    CONSTRAINT users_max_lvl_check CHECK ((max_lvl >= 0)),
    CONSTRAINT users_min_lvl_check CHECK ((min_lvl >= 0))
);


ALTER TABLE public.users OWNER TO postgres;

--
-- Name: all_users; Type: VIEW; Schema: public; Owner: postgres
--

CREATE VIEW public.all_users AS
 SELECT users.user_login,
    users.min_lvl,
    users.max_lvl
   FROM public.users;


ALTER TABLE public.all_users OWNER TO postgres;

--
-- Name: books_code_seq; Type: SEQUENCE; Schema: public; Owner: postgres
--

ALTER TABLE public.books ALTER COLUMN code ADD GENERATED ALWAYS AS IDENTITY (
    SEQUENCE NAME public.books_code_seq
    START WITH 1
    INCREMENT BY 1
    NO MINVALUE
    NO MAXVALUE
    CACHE 1
);


--
-- Name: books_in_library; Type: VIEW; Schema: public; Owner: postgres
--

CREATE VIEW public.books_in_library AS
 SELECT books.author,
    books.title
   FROM public.books
  WHERE (books.count_book > 0);


ALTER TABLE public.books_in_library OWNER TO postgres;

--
-- Name: lend_id_lend_seq; Type: SEQUENCE; Schema: public; Owner: postgres
--

ALTER TABLE public.lend ALTER COLUMN id_lend ADD GENERATED ALWAYS AS IDENTITY (
    SEQUENCE NAME public.lend_id_lend_seq
    START WITH 1
    INCREMENT BY 1
    NO MINVALUE
    NO MAXVALUE
    CACHE 1
);


--
-- Name: my_info; Type: VIEW; Schema: public; Owner: postgres
--

CREATE VIEW public.my_info AS
 SELECT abonents.bilet_number,
    abonents.user_login,
    abonents.last_name,
    abonents.address,
    abonents.phone
   FROM public.abonents
  WHERE (( SELECT CURRENT_USER AS "current_user") = (abonents.user_login)::text);


ALTER TABLE public.my_info OWNER TO postgres;

--
-- Name: my_lends; Type: VIEW; Schema: public; Owner: postgres
--

CREATE VIEW public.my_lends AS
 SELECT books.title,
    lend.date_lend,
    lend.date_return,
    lend.penny
   FROM ((public.abonents
     JOIN public.lend ON ((abonents.bilet_number = lend.bilet_number)))
     JOIN public.books ON ((lend.book_code = books.code)))
  WHERE (( SELECT CURRENT_USER AS "current_user") = (abonents.user_login)::text);


ALTER TABLE public.my_lends OWNER TO postgres;

--
-- Data for Name: abonents; Type: TABLE DATA; Schema: public; Owner: postgres
--

COPY public.abonents (bilet_number, user_login, last_name, address, phone) FROM stdin;
1	postgres	Безопасников	ул. Безопасности 2	+79891273678
2	library_admin	Админков	ул. Админа 3	+79998881212
3	operator_1	Операторов1	ул. Оператора 1	+79187261919
4	priv_1	Привилегов1	ул. Привилегиров 1	+79817653291
5	unpriv_1	Непривилегов 1	ул. Непривилегиров 1	+79871236789
\.


--
-- Data for Name: books; Type: TABLE DATA; Schema: public; Owner: postgres
--

COPY public.books (code, author, title, count_book) FROM stdin;
\.


--
-- Data for Name: lend; Type: TABLE DATA; Schema: public; Owner: postgres
--

COPY public.lend (id_lend, bilet_number, book_code, date_lend, date_return, penny) FROM stdin;
\.


--
-- Data for Name: tables_lvl; Type: TABLE DATA; Schema: public; Owner: postgres
--

COPY public.tables_lvl (t_name, lvl) FROM stdin;
abonents	0
lend	0
books_in_library	1
my_info	0
my_lends	0
all_abonents	2
all_books	2
all_lends	2
all_tables_lvl	3
all_users	3
books	2
tables_lvl	3
users	3
\.


--
-- Data for Name: users; Type: TABLE DATA; Schema: public; Owner: postgres
--

COPY public.users (user_login, min_lvl, max_lvl) FROM stdin;
priv_1	0	1
library_admin	0	3
operator_1	0	2
postgres	0	3
unpriv_1	0	0
\.


--
-- Name: abonents_bilet_number_seq; Type: SEQUENCE SET; Schema: public; Owner: postgres
--

SELECT pg_catalog.setval('public.abonents_bilet_number_seq', 5, true);


--
-- Name: books_code_seq; Type: SEQUENCE SET; Schema: public; Owner: postgres
--

SELECT pg_catalog.setval('public.books_code_seq', 1, false);


--
-- Name: lend_id_lend_seq; Type: SEQUENCE SET; Schema: public; Owner: postgres
--

SELECT pg_catalog.setval('public.lend_id_lend_seq', 1, false);


--
-- Name: abonents abonents_pkey_bilet_number; Type: CONSTRAINT; Schema: public; Owner: postgres
--

ALTER TABLE ONLY public.abonents
    ADD CONSTRAINT abonents_pkey_bilet_number PRIMARY KEY (bilet_number);


--
-- Name: abonents abonents_user_login_key; Type: CONSTRAINT; Schema: public; Owner: postgres
--

ALTER TABLE ONLY public.abonents
    ADD CONSTRAINT abonents_user_login_key UNIQUE (user_login);


--
-- Name: books books_pkey_code; Type: CONSTRAINT; Schema: public; Owner: postgres
--

ALTER TABLE ONLY public.books
    ADD CONSTRAINT books_pkey_code PRIMARY KEY (code);


--
-- Name: lend lend_pkey_code; Type: CONSTRAINT; Schema: public; Owner: postgres
--

ALTER TABLE ONLY public.lend
    ADD CONSTRAINT lend_pkey_code PRIMARY KEY (id_lend);


--
-- Name: tables_lvl tables_lvl_pkey_t_name; Type: CONSTRAINT; Schema: public; Owner: postgres
--

ALTER TABLE ONLY public.tables_lvl
    ADD CONSTRAINT tables_lvl_pkey_t_name PRIMARY KEY (t_name);


--
-- Name: users users_pkey_user_login; Type: CONSTRAINT; Schema: public; Owner: postgres
--

ALTER TABLE ONLY public.users
    ADD CONSTRAINT users_pkey_user_login PRIMARY KEY (user_login);


--
-- Name: lend lend_bilet_number_fkey; Type: FK CONSTRAINT; Schema: public; Owner: postgres
--

ALTER TABLE ONLY public.lend
    ADD CONSTRAINT lend_bilet_number_fkey FOREIGN KEY (bilet_number) REFERENCES public.abonents(bilet_number);


--
-- Name: lend lend_book_code_fkey; Type: FK CONSTRAINT; Schema: public; Owner: postgres
--

ALTER TABLE ONLY public.lend
    ADD CONSTRAINT lend_book_code_fkey FOREIGN KEY (book_code) REFERENCES public.books(code);


--
-- Name: users users_user_login_fkey; Type: FK CONSTRAINT; Schema: public; Owner: postgres
--

ALTER TABLE ONLY public.users
    ADD CONSTRAINT users_user_login_fkey FOREIGN KEY (user_login) REFERENCES public.abonents(user_login);


--
-- Name: TABLE abonents; Type: ACL; Schema: public; Owner: postgres
--

GRANT ALL ON TABLE public.abonents TO operators;
GRANT ALL ON TABLE public.abonents TO library_admin;


--
-- Name: TABLE all_abonents; Type: ACL; Schema: public; Owner: postgres
--

GRANT ALL ON TABLE public.all_abonents TO operators;
GRANT ALL ON TABLE public.all_abonents TO library_admin;


--
-- Name: TABLE books; Type: ACL; Schema: public; Owner: postgres
--

GRANT ALL ON TABLE public.books TO operators;
GRANT ALL ON TABLE public.books TO library_admin;


--
-- Name: TABLE all_books; Type: ACL; Schema: public; Owner: postgres
--

GRANT ALL ON TABLE public.all_books TO operators;
GRANT ALL ON TABLE public.all_books TO library_admin;


--
-- Name: TABLE all_lends; Type: ACL; Schema: public; Owner: postgres
--

GRANT ALL ON TABLE public.all_lends TO operators;
GRANT ALL ON TABLE public.all_lends TO library_admin;


--
-- Name: TABLE all_tables_lvl; Type: ACL; Schema: public; Owner: postgres
--

GRANT SELECT ON TABLE public.all_tables_lvl TO library_admin;


--
-- Name: TABLE all_users; Type: ACL; Schema: public; Owner: postgres
--

GRANT SELECT ON TABLE public.all_users TO library_admin;


--
-- Name: TABLE books_in_library; Type: ACL; Schema: public; Owner: postgres
--

GRANT SELECT ON TABLE public.books_in_library TO priv_users;
GRANT ALL ON TABLE public.books_in_library TO operators;
GRANT ALL ON TABLE public.books_in_library TO library_admin;


--
-- Name: TABLE my_info; Type: ACL; Schema: public; Owner: postgres
--

GRANT SELECT ON TABLE public.my_info TO unpriv_users;
GRANT SELECT ON TABLE public.my_info TO priv_users;
GRANT ALL ON TABLE public.my_info TO operators;
GRANT ALL ON TABLE public.my_info TO library_admin;


--
-- Name: COLUMN my_info.address; Type: ACL; Schema: public; Owner: postgres
--

GRANT UPDATE(address) ON TABLE public.my_info TO priv_users;


--
-- Name: COLUMN my_info.phone; Type: ACL; Schema: public; Owner: postgres
--

GRANT UPDATE(phone) ON TABLE public.my_info TO priv_users;


--
-- Name: TABLE my_lends; Type: ACL; Schema: public; Owner: postgres
--

GRANT SELECT ON TABLE public.my_lends TO unpriv_users;
GRANT SELECT ON TABLE public.my_lends TO priv_users;
GRANT ALL ON TABLE public.my_lends TO operators;
GRANT ALL ON TABLE public.my_lends TO library_admin;


--
-- PostgreSQL database dump complete
--

--
-- Database "postgres" dump
--

--
-- PostgreSQL database dump
--

-- Dumped from database version 13.4
-- Dumped by pg_dump version 13.4

SET statement_timeout = 0;
SET lock_timeout = 0;
SET idle_in_transaction_session_timeout = 0;
SET client_encoding = 'UTF8';
SET standard_conforming_strings = on;
SELECT pg_catalog.set_config('search_path', '', false);
SET check_function_bodies = false;
SET xmloption = content;
SET client_min_messages = warning;
SET row_security = off;

DROP DATABASE postgres;
--
-- Name: postgres; Type: DATABASE; Schema: -; Owner: postgres
--

CREATE DATABASE postgres WITH TEMPLATE = template0 ENCODING = 'UTF8' LOCALE = 'Russian_Russia.1251';


ALTER DATABASE postgres OWNER TO postgres;

\connect postgres

SET statement_timeout = 0;
SET lock_timeout = 0;
SET idle_in_transaction_session_timeout = 0;
SET client_encoding = 'UTF8';
SET standard_conforming_strings = on;
SELECT pg_catalog.set_config('search_path', '', false);
SET check_function_bodies = false;
SET xmloption = content;
SET client_min_messages = warning;
SET row_security = off;

--
-- Name: DATABASE postgres; Type: COMMENT; Schema: -; Owner: postgres
--

COMMENT ON DATABASE postgres IS 'default administrative connection database';


--
-- Name: adminpack; Type: EXTENSION; Schema: -; Owner: -
--

CREATE EXTENSION IF NOT EXISTS adminpack WITH SCHEMA pg_catalog;


--
-- Name: EXTENSION adminpack; Type: COMMENT; Schema: -; Owner: 
--

COMMENT ON EXTENSION adminpack IS 'administrative functions for PostgreSQL';


--
-- PostgreSQL database dump complete
--

--
-- Database "test" dump
--

--
-- PostgreSQL database dump
--

-- Dumped from database version 13.4
-- Dumped by pg_dump version 13.4

SET statement_timeout = 0;
SET lock_timeout = 0;
SET idle_in_transaction_session_timeout = 0;
SET client_encoding = 'UTF8';
SET standard_conforming_strings = on;
SELECT pg_catalog.set_config('search_path', '', false);
SET check_function_bodies = false;
SET xmloption = content;
SET client_min_messages = warning;
SET row_security = off;

--
-- Name: test; Type: DATABASE; Schema: -; Owner: postgres
--

CREATE DATABASE test WITH TEMPLATE = template0 ENCODING = 'UTF8' LOCALE = 'Russian_Russia.1251';


ALTER DATABASE test OWNER TO postgres;

\connect test

SET statement_timeout = 0;
SET lock_timeout = 0;
SET idle_in_transaction_session_timeout = 0;
SET client_encoding = 'UTF8';
SET standard_conforming_strings = on;
SELECT pg_catalog.set_config('search_path', '', false);
SET check_function_bodies = false;
SET xmloption = content;
SET client_min_messages = warning;
SET row_security = off;

--
-- Name: post_logs(character varying); Type: FUNCTION; Schema: public; Owner: postgres
--

CREATE FUNCTION public.post_logs(message character varying) RETURNS SETOF character varying
    LANGUAGE plpgsql
    AS $$
BEGIN
INSERT INTO logs("message") VALUES ("message");
RETURN QUERY SELECT logs.message FROM logs ORDER BY "id" DESC LIMIT 1;
END;
$$;


ALTER FUNCTION public.post_logs(message character varying) OWNER TO postgres;

--
-- Name: update_test_view_3(); Type: FUNCTION; Schema: public; Owner: postgres
--

CREATE FUNCTION public.update_test_view_3() RETURNS trigger
    LANGUAGE plpgsql
    AS $$
BEGIN
IF NEW.field != OLD.field THEN
UPDATE table_with_fk
SET field = NEW.field WHERE field = OLD.field;
END IF;
RETURN NEW; END;
$$;


ALTER FUNCTION public.update_test_view_3() OWNER TO postgres;

SET default_tablespace = '';

SET default_table_access_method = heap;

--
-- Name: logs; Type: TABLE; Schema: public; Owner: postgres
--

CREATE TABLE public.logs (
    id integer NOT NULL,
    message character varying NOT NULL
);


ALTER TABLE public.logs OWNER TO postgres;

--
-- Name: logs_id_seq; Type: SEQUENCE; Schema: public; Owner: postgres
--

ALTER TABLE public.logs ALTER COLUMN id ADD GENERATED ALWAYS AS IDENTITY (
    SEQUENCE NAME public.logs_id_seq
    START WITH 1
    INCREMENT BY 1
    NO MINVALUE
    NO MAXVALUE
    CACHE 1
);


--
-- Name: table_with_fk; Type: TABLE; Schema: public; Owner: postgres
--

CREATE TABLE public.table_with_fk (
    id integer NOT NULL,
    "table" character varying(15) NOT NULL,
    field character varying(15) NOT NULL
);


ALTER TABLE public.table_with_fk OWNER TO postgres;

--
-- Name: table_with_fk_id_seq; Type: SEQUENCE; Schema: public; Owner: postgres
--

ALTER TABLE public.table_with_fk ALTER COLUMN id ADD GENERATED ALWAYS AS IDENTITY (
    SEQUENCE NAME public.table_with_fk_id_seq
    START WITH 1
    INCREMENT BY 1
    NO MINVALUE
    NO MAXVALUE
    CACHE 1
);


--
-- Name: tables; Type: TABLE; Schema: public; Owner: postgres
--

CREATE TABLE public.tables (
    "table" character varying(15) NOT NULL,
    lvl integer NOT NULL
);


ALTER TABLE public.tables OWNER TO postgres;

--
-- Name: test; Type: TABLE; Schema: public; Owner: postgres
--

CREATE TABLE public.test (
    name character varying(20) NOT NULL,
    id integer NOT NULL
);


ALTER TABLE public.test OWNER TO postgres;

--
-- Name: test2; Type: TABLE; Schema: public; Owner: postgres
--

CREATE TABLE public.test2 (
    id integer NOT NULL,
    name2 character varying(15) NOT NULL
);


ALTER TABLE public.test2 OWNER TO postgres;

--
-- Name: test2_id_seq; Type: SEQUENCE; Schema: public; Owner: postgres
--

ALTER TABLE public.test2 ALTER COLUMN id ADD GENERATED ALWAYS AS IDENTITY (
    SEQUENCE NAME public.test2_id_seq
    START WITH 1
    INCREMENT BY 1
    NO MINVALUE
    NO MAXVALUE
    CACHE 1
);


--
-- Name: test_id_seq; Type: SEQUENCE; Schema: public; Owner: postgres
--

ALTER TABLE public.test ALTER COLUMN id ADD GENERATED ALWAYS AS IDENTITY (
    SEQUENCE NAME public.test_id_seq
    START WITH 1
    INCREMENT BY 1
    NO MINVALUE
    NO MAXVALUE
    CACHE 1
);


--
-- Name: test_view; Type: VIEW; Schema: public; Owner: postgres
--

CREATE VIEW public.test_view AS
 SELECT test.name,
    test.id
   FROM public.test;


ALTER TABLE public.test_view OWNER TO postgres;

--
-- Name: test_view_2; Type: VIEW; Schema: public; Owner: postgres
--

CREATE VIEW public.test_view_2 AS
 SELECT table_with_fk."table",
    table_with_fk.field
   FROM public.table_with_fk;


ALTER TABLE public.test_view_2 OWNER TO postgres;

--
-- Name: test_view_3; Type: VIEW; Schema: public; Owner: postgres
--

CREATE VIEW public.test_view_3 AS
 SELECT table_with_fk.field,
    tables.lvl
   FROM (public.table_with_fk
     JOIN public.tables ON (((table_with_fk."table")::text = (tables."table")::text)));


ALTER TABLE public.test_view_3 OWNER TO postgres;

--
-- Name: users; Type: TABLE; Schema: public; Owner: postgres
--

CREATE TABLE public.users (
    "user" character varying(15) NOT NULL,
    min_lvl integer NOT NULL,
    max_lvl integer
);


ALTER TABLE public.users OWNER TO postgres;

--
-- Data for Name: logs; Type: TABLE DATA; Schema: public; Owner: postgres
--

COPY public.logs (id, message) FROM stdin;
4	message
5	message
7	message
8	test
9	test
10	test
12	В систему вошел юзер user1
13	В систему вошел юзер postgres
14	В систему вошел юзер postgres
15	В систему вошел юзер user1
16	В систему вошел юзер postgres
17	В систему вошел юзер postgres
18	В систему вошел юзер postgres
19	В систему вошел юзер postgres
20	В систему вошел юзер postgres
21	В систему вошел юзер postgres
22	В систему вошел юзер postgres
23	В систему вошел юзер postgres
24	В систему вошел юзер postgres
25	В систему вошел юзер postgres
26	В систему вошел юзер postgres
27	В систему вошел юзер user1
28	В систему вошел юзер user1
29	В систему вошел юзер user1
30	В систему вошел юзер user1
31	В систему вошел юзер user1
32	В систему вошел юзер user1
33	В систему вошел юзер user1
34	В систему вошел юзер postgres
\.


--
-- Data for Name: table_with_fk; Type: TABLE DATA; Schema: public; Owner: postgres
--

COPY public.table_with_fk (id, "table", field) FROM stdin;
14	test2	12fsdf3 fd
11	test	4354
12	test2	dfd234567
\.


--
-- Data for Name: tables; Type: TABLE DATA; Schema: public; Owner: postgres
--

COPY public.tables ("table", lvl) FROM stdin;
test2	2
users	5
tables	2
table_with_fk	2
test_view	2
test_view_2	2
test_view_3	2
test	2
\.


--
-- Data for Name: test; Type: TABLE DATA; Schema: public; Owner: postgres
--

COPY public.test (name, id) FROM stdin;
1	7
10231	9
10	8
1011121	10
1234	1
\.


--
-- Data for Name: test2; Type: TABLE DATA; Schema: public; Owner: postgres
--

COPY public.test2 (id, name2) FROM stdin;
1	test
\.


--
-- Data for Name: users; Type: TABLE DATA; Schema: public; Owner: postgres
--

COPY public.users ("user", min_lvl, max_lvl) FROM stdin;
user1	2	2
postgres	4	5
user2	2	3
\.


--
-- Name: logs_id_seq; Type: SEQUENCE SET; Schema: public; Owner: postgres
--

SELECT pg_catalog.setval('public.logs_id_seq', 34, true);


--
-- Name: table_with_fk_id_seq; Type: SEQUENCE SET; Schema: public; Owner: postgres
--

SELECT pg_catalog.setval('public.table_with_fk_id_seq', 15, true);


--
-- Name: test2_id_seq; Type: SEQUENCE SET; Schema: public; Owner: postgres
--

SELECT pg_catalog.setval('public.test2_id_seq', 1, true);


--
-- Name: test_id_seq; Type: SEQUENCE SET; Schema: public; Owner: postgres
--

SELECT pg_catalog.setval('public.test_id_seq', 10, true);


--
-- Name: logs logs_pkey; Type: CONSTRAINT; Schema: public; Owner: postgres
--

ALTER TABLE ONLY public.logs
    ADD CONSTRAINT logs_pkey PRIMARY KEY (id);


--
-- Name: table_with_fk table_with_fk_pkey_id; Type: CONSTRAINT; Schema: public; Owner: postgres
--

ALTER TABLE ONLY public.table_with_fk
    ADD CONSTRAINT table_with_fk_pkey_id PRIMARY KEY (id);


--
-- Name: tables tables_pkey_table; Type: CONSTRAINT; Schema: public; Owner: postgres
--

ALTER TABLE ONLY public.tables
    ADD CONSTRAINT tables_pkey_table PRIMARY KEY ("table");


--
-- Name: test2 test2_pkey_id; Type: CONSTRAINT; Schema: public; Owner: postgres
--

ALTER TABLE ONLY public.test2
    ADD CONSTRAINT test2_pkey_id PRIMARY KEY (id);


--
-- Name: test test_pkey_id; Type: CONSTRAINT; Schema: public; Owner: postgres
--

ALTER TABLE ONLY public.test
    ADD CONSTRAINT test_pkey_id PRIMARY KEY (id);


--
-- Name: users users_pkey_user; Type: CONSTRAINT; Schema: public; Owner: postgres
--

ALTER TABLE ONLY public.users
    ADD CONSTRAINT users_pkey_user PRIMARY KEY ("user");


--
-- Name: test_view_3 update; Type: TRIGGER; Schema: public; Owner: postgres
--

CREATE TRIGGER update INSTEAD OF UPDATE ON public.test_view_3 FOR EACH ROW EXECUTE FUNCTION public.update_test_view_3();


--
-- Name: table_with_fk fkey_table_with_fk_table; Type: FK CONSTRAINT; Schema: public; Owner: postgres
--

ALTER TABLE ONLY public.table_with_fk
    ADD CONSTRAINT fkey_table_with_fk_table FOREIGN KEY ("table") REFERENCES public.tables("table");


--
-- Name: TABLE table_with_fk; Type: ACL; Schema: public; Owner: postgres
--

GRANT SELECT,INSERT,DELETE,UPDATE ON TABLE public.table_with_fk TO user1;


--
-- Name: TABLE tables; Type: ACL; Schema: public; Owner: postgres
--

GRANT SELECT,INSERT,DELETE,UPDATE ON TABLE public.tables TO user1;


--
-- Name: TABLE test; Type: ACL; Schema: public; Owner: postgres
--

GRANT SELECT ON TABLE public.test TO user1;


--
-- Name: TABLE test2; Type: ACL; Schema: public; Owner: postgres
--

GRANT SELECT,INSERT,DELETE,UPDATE ON TABLE public.test2 TO user1;


--
-- Name: TABLE test_view; Type: ACL; Schema: public; Owner: postgres
--

GRANT SELECT,INSERT,DELETE,UPDATE ON TABLE public.test_view TO user1;


--
-- Name: TABLE test_view_2; Type: ACL; Schema: public; Owner: postgres
--

GRANT SELECT,INSERT,DELETE,UPDATE ON TABLE public.test_view_2 TO user1;


--
-- Name: TABLE test_view_3; Type: ACL; Schema: public; Owner: postgres
--

GRANT SELECT,INSERT,DELETE,UPDATE ON TABLE public.test_view_3 TO user1;


--
-- PostgreSQL database dump complete
--

--
-- PostgreSQL database cluster dump complete
--

